[
    [1513317300, 1.580871E7],
    [1513317600, 1.8250857E7],
    [1513317900, 1.828695E7],
    [1513318200, 1.65333E7],
    [1513318500, 1.1644161E7],
    [1513318800, 1.5770108E7],
    [1513319100, 1.4723047E7],
    [1513319400, 1.8022973E7],
    [1513319700, 1.3029339E7],
    [1513320000, 1.2285157E7],
    [1513320300, 1.3361887E7],
    [1513320600, 1.4965938E7],
    [1513320900, 1.3414628E7],
    [1513321200, 7957002.0],
    [1513321500, 1.8709932E7],
    [1513321800, 1.1922771E7],
    [1513322100, 1.8668679E7],
    [1513322400, 1.0042006E7],
    [1513322700, 1.3052254E7],
    [1513323000, 1.331797E7],
    [1513323300, 1.6754996E7],
    [1513323600, 2.1649881E7],
    [1513323900, 1.2057137E7],
    [1513324200, 1.0091379E7],
    [1513324500, 1.3687574E7],
    [1513324800, 1.7810277E7],
    [1513325100, 1.3909706E7],
    [1513325400, 1.1239857E7],
    [1513325700, 8782854.0],
    [1513326000, 1.679404E7],
    [1513326300, 1.5461036E7],
    [1513326600, 1.2761615E7]
]